{
  "debug": false,
  "light": false,
  "api": {
    "auth": {
      "password": null,
      "username": null
    },
    "cors": {
      "setAllowOriginToAll": true
    },
    "http" : {
      "useHttp" : true,
      "host": "0.0.0.0",
      "port": 14265
    },
    "https" : {
      "useHttps" : false,
      "host": "0.0.0.0",
      "port": 14266,
      "certificatePath" : "cert.pem",
      "privateKeyPath" : "key.pem"
    },
    "limitRemoteAccess": [
      "getNeighbors",
      "addNeighbors",
      "removeNeighbors",
      "makeSnapshot",
      "listAllAccounts",
      "attachToTangle",
      "interruptAttachingToTangle"
    ],
    "pow": {
      "maxMinWeightMagnitude": 14,
      "maxTransactions": 10000,
      "useDiverDriver": false,
      "diverDriverPaths": ["/tmp/diverDriver.sock"]
    }
  },
  "log": {
    "hello": true,
    "level": "INFO",
    "useRollingLogFile" : false,
    "logFile": "hercules.log",
    "maxLogFileSize": 10,
    "maxLogFilesToKeep": 1,
    "criticalErrorLogFile" : "herculesCriticalErrors.log"
  },
  "node": {
    "port": 14600,
    "neighbors": []
  },
  "database": {
    "path": "data"
  },
  "snapshots" : {
    "filename": "",
    "path": "snapshots",
    "loadFile": "",
    "loadIRIFile": "",
    "loadIRISpentFiles": [""],
    "loadIRITimestamp": 0,
    "interval": 0,
    "period": 168,
    "enableapi": true,
    "keep": false
  }
}
